('C:\\Users\\Wiju\\Desktop\\Solver\\dist\\main.exe',
 False,
 False,
 False,
 'C:\\Users\\Wiju\\AppData\\Local\\Programs\\Python\\Python310\\lib\\site-packages\\PyInstaller\\bootloader\\images\\icon-windowed.ico',
 None,
 False,
 False,
 '<?xml version="1.0" encoding="UTF-8" standalone="yes"?><assembly xmlns="urn:schemas-microsoft-com:asm.v1" manifestVersion="1.0"><assemblyIdentity type="win32" name="main" processorArchitecture="amd64" version="1.0.0.0"/><trustInfo xmlns="urn:schemas-microsoft-com:asm.v3"><security><requestedPrivileges><requestedExecutionLevel level="asInvoker" uiAccess="false"/></requestedPrivileges></security></trustInfo><dependency><dependentAssembly><assemblyIdentity type="win32" name="Microsoft.Windows.Common-Controls" language="*" processorArchitecture="*" version="6.0.0.0" publicKeyToken="6595b64144ccf1df"/></dependentAssembly></dependency><compatibility xmlns="urn:schemas-microsoft-com:compatibility.v1"><application><supportedOS Id="{e2011457-1546-43c5-a5fe-008deee3d3f0}"/><supportedOS Id="{35138b9a-5d96-4fbd-8e2d-a2440225f93a}"/><supportedOS Id="{4a2f28e3-53b9-4441-ba9c-d69d4a4a6e38}"/><supportedOS Id="{1f676c76-80e1-4239-95bb-83d0f6d0da78}"/><supportedOS Id="{8e0f7a12-bfb3-4fe8-b9a5-48fd50a15a9a}"/></application></compatibility><application xmlns="urn:schemas-microsoft-com:asm.v3"><windowsSettings><longPathAware xmlns="http://schemas.microsoft.com/SMI/2016/WindowsSettings">true</longPathAware></windowsSettings></application></assembly>',
 True,
 True,
 None,
 None,
 None,
 'C:\\Users\\Wiju\\Desktop\\Solver\\build\\main\\main.pkg',
 [('PYZ-00.pyz',
   'C:\\Users\\Wiju\\Desktop\\Solver\\build\\main\\PYZ-00.pyz',
   'PYZ'),
  ('struct',
   'C:\\Users\\Wiju\\AppData\\Local\\Programs\\Python\\Python310\\lib\\struct.pyo',
   'PYMODULE'),
  ('pyimod01_os_path',
   'C:\\Users\\Wiju\\AppData\\Local\\Programs\\Python\\Python310\\lib\\site-packages\\PyInstaller\\loader\\pyimod01_os_path.pyc',
   'PYMODULE'),
  ('pyimod02_archive',
   'C:\\Users\\Wiju\\AppData\\Local\\Programs\\Python\\Python310\\lib\\site-packages\\PyInstaller\\loader\\pyimod02_archive.pyc',
   'PYMODULE'),
  ('pyimod03_importers',
   'C:\\Users\\Wiju\\AppData\\Local\\Programs\\Python\\Python310\\lib\\site-packages\\PyInstaller\\loader\\pyimod03_importers.pyc',
   'PYMODULE'),
  ('pyimod04_ctypes',
   'C:\\Users\\Wiju\\AppData\\Local\\Programs\\Python\\Python310\\lib\\site-packages\\PyInstaller\\loader\\pyimod04_ctypes.pyc',
   'PYMODULE'),
  ('pyiboot01_bootstrap',
   'C:\\Users\\Wiju\\AppData\\Local\\Programs\\Python\\Python310\\lib\\site-packages\\PyInstaller\\loader\\pyiboot01_bootstrap.py',
   'PYSOURCE'),
  ('pyi_rth_inspect',
   'C:\\Users\\Wiju\\AppData\\Local\\Programs\\Python\\Python310\\Lib\\site-packages\\PyInstaller\\hooks\\rthooks\\pyi_rth_inspect.py',
   'PYSOURCE'),
  ('pyi_rth_pkgutil',
   'C:\\Users\\Wiju\\AppData\\Local\\Programs\\Python\\Python310\\Lib\\site-packages\\PyInstaller\\hooks\\rthooks\\pyi_rth_pkgutil.py',
   'PYSOURCE'),
  ('pyi_rth_multiprocessing',
   'C:\\Users\\Wiju\\AppData\\Local\\Programs\\Python\\Python310\\Lib\\site-packages\\PyInstaller\\hooks\\rthooks\\pyi_rth_multiprocessing.py',
   'PYSOURCE'),
  ('pyi_rth_subprocess',
   'C:\\Users\\Wiju\\AppData\\Local\\Programs\\Python\\Python310\\Lib\\site-packages\\PyInstaller\\hooks\\rthooks\\pyi_rth_subprocess.py',
   'PYSOURCE'),
  ('pyi_rth_pyqt6',
   'C:\\Users\\Wiju\\AppData\\Local\\Programs\\Python\\Python310\\Lib\\site-packages\\PyInstaller\\hooks\\rthooks\\pyi_rth_pyqt6.py',
   'PYSOURCE'),
  ('main', 'C:\\Users\\Wiju\\Desktop\\Solver\\main.py', 'PYSOURCE'),
  ('VCRUNTIME140.dll',
   'C:\\Users\\Wiju\\AppData\\Local\\Programs\\Python\\Python310\\VCRUNTIME140.dll',
   'BINARY'),
  ('python310.dll',
   'C:\\Users\\Wiju\\AppData\\Local\\Programs\\Python\\Python310\\python310.dll',
   'BINARY'),
  ('libopenblas.EL2C6PLE4ZYW3ECEVIV3OXXGRN2NRFM2.gfortran-win_amd64.dll',
   'C:\\Users\\Wiju\\AppData\\Local\\Programs\\Python\\Python310\\lib\\site-packages\\numpy\\.libs\\libopenblas.EL2C6PLE4ZYW3ECEVIV3OXXGRN2NRFM2.gfortran-win_amd64.dll',
   'BINARY'),
  ('PyQt6\\Qt6\\plugins\\imageformats\\qwebp.dll',
   'C:\\Users\\Wiju\\AppData\\Local\\Programs\\Python\\Python310\\lib\\site-packages\\PyQt6\\Qt6\\plugins\\imageformats\\qwebp.dll',
   'BINARY'),
  ('PyQt6\\Qt6\\plugins\\platforms\\qwindows.dll',
   'C:\\Users\\Wiju\\AppData\\Local\\Programs\\Python\\Python310\\lib\\site-packages\\PyQt6\\Qt6\\plugins\\platforms\\qwindows.dll',
   'BINARY'),
  ('PyQt6\\Qt6\\plugins\\imageformats\\qjpeg.dll',
   'C:\\Users\\Wiju\\AppData\\Local\\Programs\\Python\\Python310\\lib\\site-packages\\PyQt6\\Qt6\\plugins\\imageformats\\qjpeg.dll',
   'BINARY'),
  ('PyQt6\\Qt6\\plugins\\styles\\qwindowsvistastyle.dll',
   'C:\\Users\\Wiju\\AppData\\Local\\Programs\\Python\\Python310\\lib\\site-packages\\PyQt6\\Qt6\\plugins\\styles\\qwindowsvistastyle.dll',
   'BINARY'),
  ('PyQt6\\Qt6\\plugins\\imageformats\\qico.dll',
   'C:\\Users\\Wiju\\AppData\\Local\\Programs\\Python\\Python310\\lib\\site-packages\\PyQt6\\Qt6\\plugins\\imageformats\\qico.dll',
   'BINARY'),
  ('PyQt6\\Qt6\\plugins\\platforms\\qminimal.dll',
   'C:\\Users\\Wiju\\AppData\\Local\\Programs\\Python\\Python310\\lib\\site-packages\\PyQt6\\Qt6\\plugins\\platforms\\qminimal.dll',
   'BINARY'),
  ('PyQt6\\Qt6\\plugins\\imageformats\\qtiff.dll',
   'C:\\Users\\Wiju\\AppData\\Local\\Programs\\Python\\Python310\\lib\\site-packages\\PyQt6\\Qt6\\plugins\\imageformats\\qtiff.dll',
   'BINARY'),
  ('PyQt6\\Qt6\\plugins\\imageformats\\qwbmp.dll',
   'C:\\Users\\Wiju\\AppData\\Local\\Programs\\Python\\Python310\\lib\\site-packages\\PyQt6\\Qt6\\plugins\\imageformats\\qwbmp.dll',
   'BINARY'),
  ('PyQt6\\Qt6\\plugins\\iconengines\\qsvgicon.dll',
   'C:\\Users\\Wiju\\AppData\\Local\\Programs\\Python\\Python310\\lib\\site-packages\\PyQt6\\Qt6\\plugins\\iconengines\\qsvgicon.dll',
   'BINARY'),
  ('PyQt6\\Qt6\\plugins\\imageformats\\qsvg.dll',
   'C:\\Users\\Wiju\\AppData\\Local\\Programs\\Python\\Python310\\lib\\site-packages\\PyQt6\\Qt6\\plugins\\imageformats\\qsvg.dll',
   'BINARY'),
  ('opengl32sw.dll',
   'C:\\Users\\Wiju\\AppData\\Local\\Programs\\Python\\Python310\\lib\\site-packages\\PyQt6\\Qt6\\bin\\opengl32sw.dll',
   'BINARY'),
  ('PyQt6\\Qt6\\plugins\\imageformats\\qicns.dll',
   'C:\\Users\\Wiju\\AppData\\Local\\Programs\\Python\\Python310\\lib\\site-packages\\PyQt6\\Qt6\\plugins\\imageformats\\qicns.dll',
   'BINARY'),
  ('cv2\\opencv_videoio_ffmpeg455_64.dll',
   'C:\\Users\\Wiju\\AppData\\Local\\Programs\\Python\\Python310\\lib\\site-packages\\cv2\\opencv_videoio_ffmpeg455_64.dll',
   'BINARY'),
  ('PyQt6\\Qt6\\plugins\\imageformats\\qtga.dll',
   'C:\\Users\\Wiju\\AppData\\Local\\Programs\\Python\\Python310\\lib\\site-packages\\PyQt6\\Qt6\\plugins\\imageformats\\qtga.dll',
   'BINARY'),
  ('PyQt6\\Qt6\\plugins\\imageformats\\qgif.dll',
   'C:\\Users\\Wiju\\AppData\\Local\\Programs\\Python\\Python310\\lib\\site-packages\\PyQt6\\Qt6\\plugins\\imageformats\\qgif.dll',
   'BINARY'),
  ('PyQt6\\Qt6\\plugins\\platforms\\qoffscreen.dll',
   'C:\\Users\\Wiju\\AppData\\Local\\Programs\\Python\\Python310\\lib\\site-packages\\PyQt6\\Qt6\\plugins\\platforms\\qoffscreen.dll',
   'BINARY'),
  ('_multiprocessing',
   'C:\\Users\\Wiju\\AppData\\Local\\Programs\\Python\\Python310\\DLLs\\_multiprocessing.pyd',
   'EXTENSION'),
  ('_decimal',
   'C:\\Users\\Wiju\\AppData\\Local\\Programs\\Python\\Python310\\DLLs\\_decimal.pyd',
   'EXTENSION'),
  ('_socket',
   'C:\\Users\\Wiju\\AppData\\Local\\Programs\\Python\\Python310\\DLLs\\_socket.pyd',
   'EXTENSION'),
  ('select',
   'C:\\Users\\Wiju\\AppData\\Local\\Programs\\Python\\Python310\\DLLs\\select.pyd',
   'EXTENSION'),
  ('_overlapped',
   'C:\\Users\\Wiju\\AppData\\Local\\Programs\\Python\\Python310\\DLLs\\_overlapped.pyd',
   'EXTENSION'),
  ('_ssl',
   'C:\\Users\\Wiju\\AppData\\Local\\Programs\\Python\\Python310\\DLLs\\_ssl.pyd',
   'EXTENSION'),
  ('_asyncio',
   'C:\\Users\\Wiju\\AppData\\Local\\Programs\\Python\\Python310\\DLLs\\_asyncio.pyd',
   'EXTENSION'),
  ('_queue',
   'C:\\Users\\Wiju\\AppData\\Local\\Programs\\Python\\Python310\\DLLs\\_queue.pyd',
   'EXTENSION'),
  ('pyexpat',
   'C:\\Users\\Wiju\\AppData\\Local\\Programs\\Python\\Python310\\DLLs\\pyexpat.pyd',
   'EXTENSION'),
  ('unicodedata',
   'C:\\Users\\Wiju\\AppData\\Local\\Programs\\Python\\Python310\\DLLs\\unicodedata.pyd',
   'EXTENSION'),
  ('_hashlib',
   'C:\\Users\\Wiju\\AppData\\Local\\Programs\\Python\\Python310\\DLLs\\_hashlib.pyd',
   'EXTENSION'),
  ('_lzma',
   'C:\\Users\\Wiju\\AppData\\Local\\Programs\\Python\\Python310\\DLLs\\_lzma.pyd',
   'EXTENSION'),
  ('_bz2',
   'C:\\Users\\Wiju\\AppData\\Local\\Programs\\Python\\Python310\\DLLs\\_bz2.pyd',
   'EXTENSION'),
  ('_ctypes',
   'C:\\Users\\Wiju\\AppData\\Local\\Programs\\Python\\Python310\\DLLs\\_ctypes.pyd',
   'EXTENSION'),
  ('PyQt6.QtWidgets',
   'C:\\Users\\Wiju\\AppData\\Local\\Programs\\Python\\Python310\\lib\\site-packages\\PyQt6\\QtWidgets.pyd',
   'EXTENSION'),
  ('PyQt6.QtGui',
   'C:\\Users\\Wiju\\AppData\\Local\\Programs\\Python\\Python310\\lib\\site-packages\\PyQt6\\QtGui.pyd',
   'EXTENSION'),
  ('PyQt6.QtCore',
   'C:\\Users\\Wiju\\AppData\\Local\\Programs\\Python\\Python310\\lib\\site-packages\\PyQt6\\QtCore.pyd',
   'EXTENSION'),
  ('PyQt6.sip',
   'C:\\Users\\Wiju\\AppData\\Local\\Programs\\Python\\Python310\\lib\\site-packages\\PyQt6\\sip.cp310-win_amd64.pyd',
   'EXTENSION'),
  ('numpy.core._multiarray_umath',
   'C:\\Users\\Wiju\\AppData\\Local\\Programs\\Python\\Python310\\lib\\site-packages\\numpy\\core\\_multiarray_umath.cp310-win_amd64.pyd',
   'EXTENSION'),
  ('numpy.core._multiarray_tests',
   'C:\\Users\\Wiju\\AppData\\Local\\Programs\\Python\\Python310\\lib\\site-packages\\numpy\\core\\_multiarray_tests.cp310-win_amd64.pyd',
   'EXTENSION'),
  ('numpy.linalg.lapack_lite',
   'C:\\Users\\Wiju\\AppData\\Local\\Programs\\Python\\Python310\\lib\\site-packages\\numpy\\linalg\\lapack_lite.cp310-win_amd64.pyd',
   'EXTENSION'),
  ('numpy.random.mtrand',
   'C:\\Users\\Wiju\\AppData\\Local\\Programs\\Python\\Python310\\lib\\site-packages\\numpy\\random\\mtrand.cp310-win_amd64.pyd',
   'EXTENSION'),
  ('numpy.random._sfc64',
   'C:\\Users\\Wiju\\AppData\\Local\\Programs\\Python\\Python310\\lib\\site-packages\\numpy\\random\\_sfc64.cp310-win_amd64.pyd',
   'EXTENSION'),
  ('numpy.random._philox',
   'C:\\Users\\Wiju\\AppData\\Local\\Programs\\Python\\Python310\\lib\\site-packages\\numpy\\random\\_philox.cp310-win_amd64.pyd',
   'EXTENSION'),
  ('numpy.random._pcg64',
   'C:\\Users\\Wiju\\AppData\\Local\\Programs\\Python\\Python310\\lib\\site-packages\\numpy\\random\\_pcg64.cp310-win_amd64.pyd',
   'EXTENSION'),
  ('numpy.random._mt19937',
   'C:\\Users\\Wiju\\AppData\\Local\\Programs\\Python\\Python310\\lib\\site-packages\\numpy\\random\\_mt19937.cp310-win_amd64.pyd',
   'EXTENSION'),
  ('numpy.random.bit_generator',
   'C:\\Users\\Wiju\\AppData\\Local\\Programs\\Python\\Python310\\lib\\site-packages\\numpy\\random\\bit_generator.cp310-win_amd64.pyd',
   'EXTENSION'),
  ('numpy.random._generator',
   'C:\\Users\\Wiju\\AppData\\Local\\Programs\\Python\\Python310\\lib\\site-packages\\numpy\\random\\_generator.cp310-win_amd64.pyd',
   'EXTENSION'),
  ('numpy.random._bounded_integers',
   'C:\\Users\\Wiju\\AppData\\Local\\Programs\\Python\\Python310\\lib\\site-packages\\numpy\\random\\_bounded_integers.cp310-win_amd64.pyd',
   'EXTENSION'),
  ('numpy.random._common',
   'C:\\Users\\Wiju\\AppData\\Local\\Programs\\Python\\Python310\\lib\\site-packages\\numpy\\random\\_common.cp310-win_amd64.pyd',
   'EXTENSION'),
  ('numpy.fft._pocketfft_internal',
   'C:\\Users\\Wiju\\AppData\\Local\\Programs\\Python\\Python310\\lib\\site-packages\\numpy\\fft\\_pocketfft_internal.cp310-win_amd64.pyd',
   'EXTENSION'),
  ('numpy.linalg._umath_linalg',
   'C:\\Users\\Wiju\\AppData\\Local\\Programs\\Python\\Python310\\lib\\site-packages\\numpy\\linalg\\_umath_linalg.cp310-win_amd64.pyd',
   'EXTENSION'),
  ('cv2.cv2',
   'C:\\Users\\Wiju\\AppData\\Local\\Programs\\Python\\Python310\\lib\\site-packages\\cv2\\cv2.pyd',
   'EXTENSION'),
  ('Qt6Gui.dll',
   'C:\\Users\\Wiju\\AppData\\Local\\Programs\\Python\\Python310\\lib\\site-packages\\PyQt6\\Qt6\\bin\\Qt6Gui.dll',
   'BINARY'),
  ('Qt6Core.dll',
   'C:\\Users\\Wiju\\AppData\\Local\\Programs\\Python\\Python310\\lib\\site-packages\\PyQt6\\Qt6\\bin\\Qt6Core.dll',
   'BINARY'),
  ('MSVCP140.dll', 'C:\\WINDOWS\\system32\\MSVCP140.dll', 'BINARY'),
  ('VCRUNTIME140_1.dll',
   'C:\\Users\\Wiju\\AppData\\Local\\Programs\\Python\\Python310\\VCRUNTIME140_1.dll',
   'BINARY'),
  ('Qt6Widgets.dll',
   'C:\\Users\\Wiju\\AppData\\Local\\Programs\\Python\\Python310\\lib\\site-packages\\PyQt6\\Qt6\\bin\\Qt6Widgets.dll',
   'BINARY'),
  ('Qt6Svg.dll',
   'C:\\Users\\Wiju\\AppData\\Local\\Programs\\Python\\Python310\\lib\\site-packages\\PyQt6\\Qt6\\bin\\Qt6Svg.dll',
   'BINARY'),
  ('libcrypto-1_1.dll',
   'C:\\Users\\Wiju\\AppData\\Local\\Programs\\Python\\Python310\\DLLs\\libcrypto-1_1.dll',
   'BINARY'),
  ('libssl-1_1.dll',
   'C:\\Users\\Wiju\\AppData\\Local\\Programs\\Python\\Python310\\DLLs\\libssl-1_1.dll',
   'BINARY'),
  ('libffi-7.dll',
   'C:\\Users\\Wiju\\AppData\\Local\\Programs\\Python\\Python310\\DLLs\\libffi-7.dll',
   'BINARY'),
  ('python3.dll',
   'C:\\Users\\Wiju\\AppData\\Local\\Programs\\Python\\Python310\\python3.dll',
   'BINARY'),
  ('MSVCP140_2.dll', 'C:\\WINDOWS\\system32\\MSVCP140_2.dll', 'BINARY'),
  ('MSVCP140_1.dll',
   'C:\\Users\\Wiju\\AppData\\Local\\Programs\\Python\\Python310\\lib\\site-packages\\PyQt6\\Qt6\\bin\\MSVCP140_1.dll',
   'BINARY'),
  ('base_library.zip',
   'C:\\Users\\Wiju\\Desktop\\Solver\\build\\main\\base_library.zip',
   'DATA'),
  ('PyQt6\\Qt6\\translations\\qtbase_zh_TW.qm',
   'C:\\Users\\Wiju\\AppData\\Local\\Programs\\Python\\Python310\\lib\\site-packages\\PyQt6\\Qt6\\translations\\qtbase_zh_TW.qm',
   'DATA'),
  ('PyQt6\\Qt6\\translations\\qtbase_gd.qm',
   'C:\\Users\\Wiju\\AppData\\Local\\Programs\\Python\\Python310\\lib\\site-packages\\PyQt6\\Qt6\\translations\\qtbase_gd.qm',
   'DATA'),
  ('PyQt6\\Qt6\\translations\\qtbase_da.qm',
   'C:\\Users\\Wiju\\AppData\\Local\\Programs\\Python\\Python310\\lib\\site-packages\\PyQt6\\Qt6\\translations\\qtbase_da.qm',
   'DATA'),
  ('cv2\\gapi\\__init__.py',
   'C:\\Users\\Wiju\\AppData\\Local\\Programs\\Python\\Python310\\lib\\site-packages\\cv2\\gapi\\__init__.py',
   'DATA'),
  ('PyQt6\\Qt6\\translations\\qtbase_uk.qm',
   'C:\\Users\\Wiju\\AppData\\Local\\Programs\\Python\\Python310\\lib\\site-packages\\PyQt6\\Qt6\\translations\\qtbase_uk.qm',
   'DATA'),
  ('PyQt6\\Qt6\\translations\\qtbase_ru.qm',
   'C:\\Users\\Wiju\\AppData\\Local\\Programs\\Python\\Python310\\lib\\site-packages\\PyQt6\\Qt6\\translations\\qtbase_ru.qm',
   'DATA'),
  ('PyQt6\\Qt6\\translations\\qtbase_pl.qm',
   'C:\\Users\\Wiju\\AppData\\Local\\Programs\\Python\\Python310\\lib\\site-packages\\PyQt6\\Qt6\\translations\\qtbase_pl.qm',
   'DATA'),
  ('PyQt6\\Qt6\\translations\\qtbase_tr.qm',
   'C:\\Users\\Wiju\\AppData\\Local\\Programs\\Python\\Python310\\lib\\site-packages\\PyQt6\\Qt6\\translations\\qtbase_tr.qm',
   'DATA'),
  ('cv2\\config-3.py',
   'C:\\Users\\Wiju\\AppData\\Local\\Programs\\Python\\Python310\\lib\\site-packages\\cv2\\config-3.py',
   'DATA'),
  ('PyQt6\\Qt6\\translations\\qtbase_sk.qm',
   'C:\\Users\\Wiju\\AppData\\Local\\Programs\\Python\\Python310\\lib\\site-packages\\PyQt6\\Qt6\\translations\\qtbase_sk.qm',
   'DATA'),
  ('PyQt6\\Qt6\\translations\\qtbase_ko.qm',
   'C:\\Users\\Wiju\\AppData\\Local\\Programs\\Python\\Python310\\lib\\site-packages\\PyQt6\\Qt6\\translations\\qtbase_ko.qm',
   'DATA'),
  ('PyQt6\\Qt6\\translations\\qtbase_lv.qm',
   'C:\\Users\\Wiju\\AppData\\Local\\Programs\\Python\\Python310\\lib\\site-packages\\PyQt6\\Qt6\\translations\\qtbase_lv.qm',
   'DATA'),
  ('PyQt6\\Qt6\\translations\\qtbase_it.qm',
   'C:\\Users\\Wiju\\AppData\\Local\\Programs\\Python\\Python310\\lib\\site-packages\\PyQt6\\Qt6\\translations\\qtbase_it.qm',
   'DATA'),
  ('cv2\\mat_wrapper\\__init__.py',
   'C:\\Users\\Wiju\\AppData\\Local\\Programs\\Python\\Python310\\lib\\site-packages\\cv2\\mat_wrapper\\__init__.py',
   'DATA'),
  ('PyQt6\\Qt6\\translations\\qtbase_es.qm',
   'C:\\Users\\Wiju\\AppData\\Local\\Programs\\Python\\Python310\\lib\\site-packages\\PyQt6\\Qt6\\translations\\qtbase_es.qm',
   'DATA'),
  ('cv2\\utils\\__init__.py',
   'C:\\Users\\Wiju\\AppData\\Local\\Programs\\Python\\Python310\\lib\\site-packages\\cv2\\utils\\__init__.py',
   'DATA'),
  ('PyQt6\\Qt6\\translations\\qtbase_hr.qm',
   'C:\\Users\\Wiju\\AppData\\Local\\Programs\\Python\\Python310\\lib\\site-packages\\PyQt6\\Qt6\\translations\\qtbase_hr.qm',
   'DATA'),
  ('PyQt6\\Qt6\\translations\\qtbase_he.qm',
   'C:\\Users\\Wiju\\AppData\\Local\\Programs\\Python\\Python310\\lib\\site-packages\\PyQt6\\Qt6\\translations\\qtbase_he.qm',
   'DATA'),
  ('cv2\\misc\\__init__.py',
   'C:\\Users\\Wiju\\AppData\\Local\\Programs\\Python\\Python310\\lib\\site-packages\\cv2\\misc\\__init__.py',
   'DATA'),
  ('PyQt6\\Qt6\\translations\\qtbase_pt_BR.qm',
   'C:\\Users\\Wiju\\AppData\\Local\\Programs\\Python\\Python310\\lib\\site-packages\\PyQt6\\Qt6\\translations\\qtbase_pt_BR.qm',
   'DATA'),
  ('PyQt6\\Qt6\\translations\\qtbase_fr.qm',
   'C:\\Users\\Wiju\\AppData\\Local\\Programs\\Python\\Python310\\lib\\site-packages\\PyQt6\\Qt6\\translations\\qtbase_fr.qm',
   'DATA'),
  ('PyQt6\\Qt6\\translations\\qtbase_bg.qm',
   'C:\\Users\\Wiju\\AppData\\Local\\Programs\\Python\\Python310\\lib\\site-packages\\PyQt6\\Qt6\\translations\\qtbase_bg.qm',
   'DATA'),
  ('cv2\\version.py',
   'C:\\Users\\Wiju\\AppData\\Local\\Programs\\Python\\Python310\\lib\\site-packages\\cv2\\version.py',
   'DATA'),
  ('cv2\\misc\\version.py',
   'C:\\Users\\Wiju\\AppData\\Local\\Programs\\Python\\Python310\\lib\\site-packages\\cv2\\misc\\version.py',
   'DATA'),
  ('PyQt6\\Qt6\\translations\\qtbase_de.qm',
   'C:\\Users\\Wiju\\AppData\\Local\\Programs\\Python\\Python310\\lib\\site-packages\\PyQt6\\Qt6\\translations\\qtbase_de.qm',
   'DATA'),
  ('PyQt6\\Qt6\\translations\\qtbase_cs.qm',
   'C:\\Users\\Wiju\\AppData\\Local\\Programs\\Python\\Python310\\lib\\site-packages\\PyQt6\\Qt6\\translations\\qtbase_cs.qm',
   'DATA'),
  ('PyQt6\\Qt6\\translations\\qtbase_en.qm',
   'C:\\Users\\Wiju\\AppData\\Local\\Programs\\Python\\Python310\\lib\\site-packages\\PyQt6\\Qt6\\translations\\qtbase_en.qm',
   'DATA'),
  ('cv2\\data\\__init__.py',
   'C:\\Users\\Wiju\\AppData\\Local\\Programs\\Python\\Python310\\lib\\site-packages\\cv2\\data\\__init__.py',
   'DATA'),
  ('PyQt6\\Qt6\\translations\\qtbase_zh_CN.qm',
   'C:\\Users\\Wiju\\AppData\\Local\\Programs\\Python\\Python310\\lib\\site-packages\\PyQt6\\Qt6\\translations\\qtbase_zh_CN.qm',
   'DATA'),
  ('PyQt6\\Qt6\\translations\\qtbase_nl.qm',
   'C:\\Users\\Wiju\\AppData\\Local\\Programs\\Python\\Python310\\lib\\site-packages\\PyQt6\\Qt6\\translations\\qtbase_nl.qm',
   'DATA'),
  ('PyQt6\\Qt6\\translations\\qtbase_hu.qm',
   'C:\\Users\\Wiju\\AppData\\Local\\Programs\\Python\\Python310\\lib\\site-packages\\PyQt6\\Qt6\\translations\\qtbase_hu.qm',
   'DATA'),
  ('PyQt6\\Qt6\\translations\\qtbase_ca.qm',
   'C:\\Users\\Wiju\\AppData\\Local\\Programs\\Python\\Python310\\lib\\site-packages\\PyQt6\\Qt6\\translations\\qtbase_ca.qm',
   'DATA'),
  ('PyQt6\\Qt6\\translations\\qtbase_ar.qm',
   'C:\\Users\\Wiju\\AppData\\Local\\Programs\\Python\\Python310\\lib\\site-packages\\PyQt6\\Qt6\\translations\\qtbase_ar.qm',
   'DATA'),
  ('PyQt6\\Qt6\\translations\\qtbase_fa.qm',
   'C:\\Users\\Wiju\\AppData\\Local\\Programs\\Python\\Python310\\lib\\site-packages\\PyQt6\\Qt6\\translations\\qtbase_fa.qm',
   'DATA'),
  ('cv2\\load_config_py3.py',
   'C:\\Users\\Wiju\\AppData\\Local\\Programs\\Python\\Python310\\lib\\site-packages\\cv2\\load_config_py3.py',
   'DATA'),
  ('PyQt6\\Qt6\\translations\\qtbase_nn.qm',
   'C:\\Users\\Wiju\\AppData\\Local\\Programs\\Python\\Python310\\lib\\site-packages\\PyQt6\\Qt6\\translations\\qtbase_nn.qm',
   'DATA'),
  ('cv2\\load_config_py2.py',
   'C:\\Users\\Wiju\\AppData\\Local\\Programs\\Python\\Python310\\lib\\site-packages\\cv2\\load_config_py2.py',
   'DATA'),
  ('cv2\\__init__.py',
   'C:\\Users\\Wiju\\AppData\\Local\\Programs\\Python\\Python310\\lib\\site-packages\\cv2\\__init__.py',
   'DATA'),
  ('PyQt6\\Qt6\\translations\\qtbase_fi.qm',
   'C:\\Users\\Wiju\\AppData\\Local\\Programs\\Python\\Python310\\lib\\site-packages\\PyQt6\\Qt6\\translations\\qtbase_fi.qm',
   'DATA'),
  ('cv2\\config.py',
   'C:\\Users\\Wiju\\AppData\\Local\\Programs\\Python\\Python310\\lib\\site-packages\\cv2\\config.py',
   'DATA'),
  ('PyQt6\\Qt6\\translations\\qtbase_ja.qm',
   'C:\\Users\\Wiju\\AppData\\Local\\Programs\\Python\\Python310\\lib\\site-packages\\PyQt6\\Qt6\\translations\\qtbase_ja.qm',
   'DATA'),
  ('setuptools-58.1.0.dist-info\\LICENSE',
   'c:\\users\\wiju\\appdata\\local\\programs\\python\\python310\\lib\\site-packages\\setuptools-58.1.0.dist-info\\LICENSE',
   'DATA'),
  ('pyinstaller-4.8.dist-info\\entry_points.txt',
   'c:\\users\\wiju\\appdata\\local\\programs\\python\\python310\\lib\\site-packages\\pyinstaller-4.8.dist-info\\entry_points.txt',
   'DATA'),
  ('setuptools-58.1.0.dist-info\\METADATA',
   'c:\\users\\wiju\\appdata\\local\\programs\\python\\python310\\lib\\site-packages\\setuptools-58.1.0.dist-info\\METADATA',
   'DATA'),
  ('wheel-0.37.1.dist-info\\METADATA',
   'c:\\users\\wiju\\appdata\\local\\programs\\python\\python310\\lib\\site-packages\\wheel-0.37.1.dist-info\\METADATA',
   'DATA'),
  ('altgraph-0.17.2.dist-info\\METADATA',
   'c:\\users\\wiju\\appdata\\local\\programs\\python\\python310\\lib\\site-packages\\altgraph-0.17.2.dist-info\\METADATA',
   'DATA'),
  ('pyinstaller-4.8.dist-info\\METADATA',
   'c:\\users\\wiju\\appdata\\local\\programs\\python\\python310\\lib\\site-packages\\pyinstaller-4.8.dist-info\\METADATA',
   'DATA'),
  ('pyinstaller-4.8.dist-info\\WHEEL',
   'c:\\users\\wiju\\appdata\\local\\programs\\python\\python310\\lib\\site-packages\\pyinstaller-4.8.dist-info\\WHEEL',
   'DATA'),
  ('pyinstaller-4.8.dist-info\\COPYING.txt',
   'c:\\users\\wiju\\appdata\\local\\programs\\python\\python310\\lib\\site-packages\\pyinstaller-4.8.dist-info\\COPYING.txt',
   'DATA'),
  ('altgraph-0.17.2.dist-info\\LICENSE',
   'c:\\users\\wiju\\appdata\\local\\programs\\python\\python310\\lib\\site-packages\\altgraph-0.17.2.dist-info\\LICENSE',
   'DATA'),
  ('wheel-0.37.1.dist-info\\entry_points.txt',
   'c:\\users\\wiju\\appdata\\local\\programs\\python\\python310\\lib\\site-packages\\wheel-0.37.1.dist-info\\entry_points.txt',
   'DATA'),
  ('setuptools-58.1.0.dist-info\\WHEEL',
   'c:\\users\\wiju\\appdata\\local\\programs\\python\\python310\\lib\\site-packages\\setuptools-58.1.0.dist-info\\WHEEL',
   'DATA'),
  ('altgraph-0.17.2.dist-info\\zip-safe',
   'c:\\users\\wiju\\appdata\\local\\programs\\python\\python310\\lib\\site-packages\\altgraph-0.17.2.dist-info\\zip-safe',
   'DATA'),
  ('pyinstaller-4.8.dist-info\\REQUESTED',
   'c:\\users\\wiju\\appdata\\local\\programs\\python\\python310\\lib\\site-packages\\pyinstaller-4.8.dist-info\\REQUESTED',
   'DATA'),
  ('setuptools-58.1.0.dist-info\\REQUESTED',
   'c:\\users\\wiju\\appdata\\local\\programs\\python\\python310\\lib\\site-packages\\setuptools-58.1.0.dist-info\\REQUESTED',
   'DATA'),
  ('altgraph-0.17.2.dist-info\\INSTALLER',
   'c:\\users\\wiju\\appdata\\local\\programs\\python\\python310\\lib\\site-packages\\altgraph-0.17.2.dist-info\\INSTALLER',
   'DATA'),
  ('altgraph-0.17.2.dist-info\\WHEEL',
   'c:\\users\\wiju\\appdata\\local\\programs\\python\\python310\\lib\\site-packages\\altgraph-0.17.2.dist-info\\WHEEL',
   'DATA'),
  ('wheel-0.37.1.dist-info\\top_level.txt',
   'c:\\users\\wiju\\appdata\\local\\programs\\python\\python310\\lib\\site-packages\\wheel-0.37.1.dist-info\\top_level.txt',
   'DATA'),
  ('wheel-0.37.1.dist-info\\INSTALLER',
   'c:\\users\\wiju\\appdata\\local\\programs\\python\\python310\\lib\\site-packages\\wheel-0.37.1.dist-info\\INSTALLER',
   'DATA'),
  ('setuptools-58.1.0.dist-info\\entry_points.txt',
   'c:\\users\\wiju\\appdata\\local\\programs\\python\\python310\\lib\\site-packages\\setuptools-58.1.0.dist-info\\entry_points.txt',
   'DATA'),
  ('wheel-0.37.1.dist-info\\WHEEL',
   'c:\\users\\wiju\\appdata\\local\\programs\\python\\python310\\lib\\site-packages\\wheel-0.37.1.dist-info\\WHEEL',
   'DATA'),
  ('altgraph-0.17.2.dist-info\\RECORD',
   'c:\\users\\wiju\\appdata\\local\\programs\\python\\python310\\lib\\site-packages\\altgraph-0.17.2.dist-info\\RECORD',
   'DATA'),
  ('altgraph-0.17.2.dist-info\\top_level.txt',
   'c:\\users\\wiju\\appdata\\local\\programs\\python\\python310\\lib\\site-packages\\altgraph-0.17.2.dist-info\\top_level.txt',
   'DATA'),
  ('wheel-0.37.1.dist-info\\LICENSE.txt',
   'c:\\users\\wiju\\appdata\\local\\programs\\python\\python310\\lib\\site-packages\\wheel-0.37.1.dist-info\\LICENSE.txt',
   'DATA'),
  ('setuptools-58.1.0.dist-info\\RECORD',
   'c:\\users\\wiju\\appdata\\local\\programs\\python\\python310\\lib\\site-packages\\setuptools-58.1.0.dist-info\\RECORD',
   'DATA'),
  ('wheel-0.37.1.dist-info\\RECORD',
   'c:\\users\\wiju\\appdata\\local\\programs\\python\\python310\\lib\\site-packages\\wheel-0.37.1.dist-info\\RECORD',
   'DATA'),
  ('setuptools-58.1.0.dist-info\\top_level.txt',
   'c:\\users\\wiju\\appdata\\local\\programs\\python\\python310\\lib\\site-packages\\setuptools-58.1.0.dist-info\\top_level.txt',
   'DATA'),
  ('pyinstaller-4.8.dist-info\\INSTALLER',
   'c:\\users\\wiju\\appdata\\local\\programs\\python\\python310\\lib\\site-packages\\pyinstaller-4.8.dist-info\\INSTALLER',
   'DATA'),
  ('setuptools-58.1.0.dist-info\\INSTALLER',
   'c:\\users\\wiju\\appdata\\local\\programs\\python\\python310\\lib\\site-packages\\setuptools-58.1.0.dist-info\\INSTALLER',
   'DATA'),
  ('pyinstaller-4.8.dist-info\\top_level.txt',
   'c:\\users\\wiju\\appdata\\local\\programs\\python\\python310\\lib\\site-packages\\pyinstaller-4.8.dist-info\\top_level.txt',
   'DATA'),
  ('pyinstaller-4.8.dist-info\\RECORD',
   'c:\\users\\wiju\\appdata\\local\\programs\\python\\python310\\lib\\site-packages\\pyinstaller-4.8.dist-info\\RECORD',
   'DATA')],
 [],
 False,
 False,
 1647285186,
 [('runw.exe',
   'C:\\Users\\Wiju\\AppData\\Local\\Programs\\Python\\Python310\\lib\\site-packages\\PyInstaller\\bootloader\\Windows-64bit\\runw.exe',
   'EXECUTABLE')])
