MODULE MainModule
	PROC main()
        SetDO hand_CmdVacuum1_L,low;
        gotoHomeL;
        WaitSyncTask ID_1, married_Tasks;
        WeglegenL;        
        gotoHomeL;
        WaitSyncTask ID_1, married_Tasks;
        AufnehmenL;
	ENDPROC
ENDMODULE