MODULE CalibData
    PERS tooldata Servo:=[TRUE,[[0,0,114.2],[1,0,0,0]],[0.25,[7.4,12.4,44.8],[1,0,0,0],0.00025,0.00029,0.00012]];
    PERS tooldata VaccumOne:=[TRUE,[[63.5,18.5,37.5],[0.707106781,0,0.707106781,0]],[0.25,[7.4,12.4,44.8],[1,0,0,0],0.00025,0.00029,0.00012]];
    PERS tooldata Camera:=[TRUE,[[-7.3,28.3,35.1],[0.5,-0.5,0.5,0.5]],[0.24,[8.2,12.5,48.1],[1,0,0,0],0.00022,0.00024,0.00009]];
    PERS wobjdata wobjPalR:=[FALSE,TRUE,"",[[160,-440,54.5],[1,0,0,0]],[[0,0,0],[1,0,0,0]]];
    PERS wobjdata wobjKoopR:=[FALSE,TRUE,"",[[458.240546731,0,300],[1,0,0,0]],[[0,0,0],[1,0,0,0]]];
    PERS tooldata VacuumTwo:=[TRUE,[[-63.5,18.5,37.5],[0,-0.707106781,0,0.707106781]],[0.25,[7.4,12.4,44.8],[1,0,0,0],0.00025,0.00029,0.00012]];
    PERS wobjdata wobj1:=[FALSE,TRUE,"",[[305.704,-434.273,57.7562],[1.08594E-06,0.707116,-0.707098,5.22826E-06]],[[0,0,0],[1,0,0,0]]];
ENDMODULE