MODULE CalibData
    PERS tooldata Servo:=[TRUE,[[0,0,114.2],[1,0,0,0]],[0.24,[8.2,12.5,48.1],[1,0,0,0],0.00022,0.00024,0.00009]];
    PERS tooldata VaccumOne:=[TRUE,[[63.5,18.5,37.5],[0.707106781,0,0.707106781,0]],[0.24,[8.2,12.5,48.1],[1,0,0,0],0.00022,0.00024,0.00009]];
    PERS tooldata Camera:=[TRUE,[[-7.3,28.3,35.1],[0.5,-0.5,0.5,0.5]],[0.24,[8.2,12.5,48.1],[1,0,0,0],0.00022,0.00024,0.00009]];
    PERS wobjdata wobjPalR:=[FALSE,TRUE,"",[[95.2895,-381.09,56],[1,0,0,0]],[[0,0,0],[1,0,0,0]]];
    PERS wobjdata wobjKoopR:=[FALSE,TRUE,"",[[458.240546731,0,300],[1,0,0,0]],[[0,0,0],[1,0,0,0]]];
ENDMODULE