MODULE MainModule

	PROC main()
        SetDO hand_CmdVacuum1_R,low;
        gotoHomeR;
        WaitSyncTask ID_1, married_Tasks;
        AufnehmenR;
        gotoHomeR;
        WaitSyncTask ID_1, married_Tasks;
        WeglegenR;
	ENDPROC
ENDMODULE