MODULE CalibData
    PERS tooldata Servo:=[TRUE,[[0,0,114.2],[1,0,0,0]],[0.25,[7.4,12.4,44.8],[1,0,0,0],0.00025,0.00029,0.00012]];
    PERS tooldata VaccumOne:=[TRUE,[[63.5,18.5,37.5],[0.707106781,0,0.707106781,0]],[0.25,[7.4,12.4,44.8],[1,0,0,0],0.00025,0.00029,0.00012]];
    PERS tooldata VacuumTwo:=[TRUE,[[-63.5,18.5,37.5],[0,-0.707106781,0,0.707106781]],[0.25,[7.4,12.4,44.8],[1,0,0,0],0.00025,0.00029,0.00012]];
    PERS wobjdata wobjTurmL:=[FALSE,TRUE,"",[[340,130,31],[1,0,0,0]],[[0,0,0],[1,0,0,0]]];
    PERS wobjdata wobjKoopL:=[FALSE,TRUE,"",[[458.2,0,300],[1,0,0,0]],[[0,0,0],[1,0,0,0]]];
ENDMODULE